0000.001 (0) Opened log file at time: Fri, 14 Mar 2014 01:05:15 +0000 on http://www.furnapt.com
0000.023 (0) UpdraftPlus WordPress backup plugin (http://updraftplus.com): 1.8.12 WP: 3.8.1 PHP: 5.2.17 (Linux gator3308.hostgator.com 3.2.54 #9 SMP Thu Feb 13 08:17:11 CST 2014 x86_64) MySQL: 5.5.33-31.1 Server: Apache safe_mode: 0 max_execution_time: 900 memory_limit: 256M (used: 37.4M | 37.8M) multisite: N mcrypt: Y ZipArchive::addFile: Y W3TC/ObjectCache: N
0000.686 (0) Free space on disk containing Updraft's temporary directory: 177263.4 Mb / Free disk space in account: 998717.7 Mb (0.1 % used)
0000.701 (0) Tasks: Backup files: 1 (schedule: daily) Backup DB: 1 (schedule: manual)
0000.722 (0) Requesting semaphore lock (fd)
0000.742 (0) Set semaphore last lock (fd) time to 2014-03-14 01:05:16
0000.744 (0) Semaphore lock (fd) complete
0000.763 (0) Backup run: resumption=0, nonce=c11dce44987b, begun at=1394759115 (1s ago), job type=backup
0000.768 (0) Scheduling a resumption (1) after 300 seconds (1394759416) in case this run gets aborted
0000.824 (0) Checking if we have a zip executable available
0000.833 (0) Testing: /usr/bin/zip
0000.873 (0) Output: zip warning: binziptest/test.zip not found or empty
0000.882 (0) Output: adding: binziptest/subdir1/	(in=0) (out=0) (stored 0%)
0000.889 (0) Output: adding: binziptest/subdir1/subdir2/	(in=0) (out=0) (stored 0%)
0000.891 (0) Output: adding: binziptest/subdir1/subdir2/test.html	(in=127) (out=105) (deflated 17%)
0000.893 (0) Output: total bytes=127, compressed=105 -> 17% savings
0000.951 (0) Output: adding: binziptest/subdir1/subdir2/test2.html	(in=134) (out=109) (deflated 19%)
0000.957 (0) Output: total bytes=261, compressed=214 -> 18% savings
0000.985 (0) Working binary zip found: /usr/bin/zip
0001.012 (0) Zip engine: found/will use a binary zip: /usr/bin/zip
0001.022 (0) Creation of backups of directories: beginning
0001.052 (0) Beginning creation of dump of plugins (split every: 800 Mb)
0001.369 (0) Free disk space in account: 998717.7 Mb (0.1 % used)
0002.912 (0) Total entities for the zip file: 358 directories, 2305 files, 29.5 Mb
0002.915 (0) Adding batch to zip file (UpdraftPlus_BinZip): over 1.5 seconds have passed since the last write (0 Mb, 1 (1) files added so far); re-opening (prior size: 0 Kb)
0002.966 (0) backup_2014-03-13-1805_LA_Furnished_Apartments_c11dce44987b-plugins.zip.tmp: size is now: 0.10 Mb
0002.974 (0) Zip: backup_2014-03-13-1805_LA_Furnished_Apartments_c11dce44987b-plugins.zip.tmp: 100 files added (on-disk size: 87.2 Kb)
0002.995 (0) Zip: backup_2014-03-13-1805_LA_Furnished_Apartments_c11dce44987b-plugins.zip.tmp: 200 files added (on-disk size: 87.2 Kb)
0003.000 (0) Zip: backup_2014-03-13-1805_LA_Furnished_Apartments_c11dce44987b-plugins.zip.tmp: 300 files added (on-disk size: 87.2 Kb)
0003.005 (0) Zip: backup_2014-03-13-1805_LA_Furnished_Apartments_c11dce44987b-plugins.zip.tmp: 400 files added (on-disk size: 87.2 Kb)
0003.016 (0) Zip: backup_2014-03-13-1805_LA_Furnished_Apartments_c11dce44987b-plugins.zip.tmp: 500 files added (on-disk size: 87.2 Kb)
0003.023 (0) Adding batch to zip file (UpdraftPlus_BinZip): over 500 files added on this batch (4.4 Mb, 2305 files batched, 501 (502) added so far); re-opening (prior size: 87.2 Kb)
0006.794 (0) backup_2014-03-13-1805_LA_Furnished_Apartments_c11dce44987b-plugins.zip.tmp: size is now: 1.30 Mb
0006.816 (0) Zip: backup_2014-03-13-1805_LA_Furnished_Apartments_c11dce44987b-plugins.zip.tmp: 600 files added (on-disk size: 1372.1 Kb)
0006.829 (0) Zip: backup_2014-03-13-1805_LA_Furnished_Apartments_c11dce44987b-plugins.zip.tmp: 700 files added (on-disk size: 1372.1 Kb)
0006.855 (0) Zip: backup_2014-03-13-1805_LA_Furnished_Apartments_c11dce44987b-plugins.zip.tmp: 800 files added (on-disk size: 1372.1 Kb)
0006.865 (0) Zip: backup_2014-03-13-1805_LA_Furnished_Apartments_c11dce44987b-plugins.zip.tmp: 900 files added (on-disk size: 1372.1 Kb)
0006.877 (0) Zip: backup_2014-03-13-1805_LA_Furnished_Apartments_c11dce44987b-plugins.zip.tmp: 1000 files added (on-disk size: 1372.1 Kb)
0006.903 (0) Adding batch to zip file (UpdraftPlus_BinZip): over 500 files added on this batch (11.4 Mb, 2305 files batched, 501 (1003) added so far); re-opening (prior size: 1372.1 Kb)
0012.270 (0) backup_2014-03-13-1805_LA_Furnished_Apartments_c11dce44987b-plugins.zip.tmp: size is now: 6.60 Mb
0012.279 (0) Zip: backup_2014-03-13-1805_LA_Furnished_Apartments_c11dce44987b-plugins.zip.tmp: 1100 files added (on-disk size: 6791.6 Kb)
0012.284 (0) Zip: backup_2014-03-13-1805_LA_Furnished_Apartments_c11dce44987b-plugins.zip.tmp: 1200 files added (on-disk size: 6791.6 Kb)
0012.290 (0) Zip: backup_2014-03-13-1805_LA_Furnished_Apartments_c11dce44987b-plugins.zip.tmp: 1300 files added (on-disk size: 6791.6 Kb)
0012.296 (0) Zip: backup_2014-03-13-1805_LA_Furnished_Apartments_c11dce44987b-plugins.zip.tmp: 1400 files added (on-disk size: 6791.6 Kb)
0012.301 (0) Zip: backup_2014-03-13-1805_LA_Furnished_Apartments_c11dce44987b-plugins.zip.tmp: 1500 files added (on-disk size: 6791.6 Kb)
0012.303 (0) Adding batch to zip file (UpdraftPlus_BinZip): over 500 files added on this batch (3.2 Mb, 2305 files batched, 501 (1504) added so far); re-opening (prior size: 6791.6 Kb)
0015.479 (0) backup_2014-03-13-1805_LA_Furnished_Apartments_c11dce44987b-plugins.zip.tmp: size is now: 8.30 Mb
0015.505 (0) Zip: backup_2014-03-13-1805_LA_Furnished_Apartments_c11dce44987b-plugins.zip.tmp: 1600 files added (on-disk size: 8546.1 Kb)
0015.527 (0) Zip: backup_2014-03-13-1805_LA_Furnished_Apartments_c11dce44987b-plugins.zip.tmp: 1700 files added (on-disk size: 8546.1 Kb)
0015.547 (0) Zip: backup_2014-03-13-1805_LA_Furnished_Apartments_c11dce44987b-plugins.zip.tmp: 1800 files added (on-disk size: 8546.1 Kb)
0015.567 (0) Zip: backup_2014-03-13-1805_LA_Furnished_Apartments_c11dce44987b-plugins.zip.tmp: 1900 files added (on-disk size: 8546.1 Kb)
0015.580 (0) Zip: backup_2014-03-13-1805_LA_Furnished_Apartments_c11dce44987b-plugins.zip.tmp: 2000 files added (on-disk size: 8546.1 Kb)
0015.585 (0) Adding batch to zip file (UpdraftPlus_BinZip): over 500 files added on this batch (9.3 Mb, 2305 files batched, 501 (2005) added so far); re-opening (prior size: 8546.1 Kb)
0020.052 (0) backup_2014-03-13-1805_LA_Furnished_Apartments_c11dce44987b-plugins.zip.tmp: size is now: 12.40 Mb
0020.076 (0) Zip: backup_2014-03-13-1805_LA_Furnished_Apartments_c11dce44987b-plugins.zip.tmp: 2100 files added (on-disk size: 12656.2 Kb)
0020.087 (0) Zip: backup_2014-03-13-1805_LA_Furnished_Apartments_c11dce44987b-plugins.zip.tmp: 2200 files added (on-disk size: 12656.2 Kb)
0020.109 (0) Zip: backup_2014-03-13-1805_LA_Furnished_Apartments_c11dce44987b-plugins.zip.tmp: 2300 files added (on-disk size: 12656.2 Kb)
0022.575 (0) Created plugins zip (0) - 13156.7 Kb in 21.2 s (620.5 Kb/s) (SHA1 checksum: a95eacc36e3697cb8f402e81d9b7a059f98f2c9d)
0022.587 (0) Beginning creation of dump of themes (split every: 800 Mb)
0023.005 (0) Free disk space in account: 998717.7 Mb (0.1 % used)
0023.424 (0) Total entities for the zip file: 46 directories, 551 files, 4.4 Mb
0023.435 (0) Zip: backup_2014-03-13-1805_LA_Furnished_Apartments_c11dce44987b-themes.zip.tmp: 100 files added (on-disk size: 0 Kb)
0023.445 (0) Zip: backup_2014-03-13-1805_LA_Furnished_Apartments_c11dce44987b-themes.zip.tmp: 200 files added (on-disk size: 0 Kb)
0023.455 (0) Zip: backup_2014-03-13-1805_LA_Furnished_Apartments_c11dce44987b-themes.zip.tmp: 300 files added (on-disk size: 0 Kb)
0023.475 (0) Zip: backup_2014-03-13-1805_LA_Furnished_Apartments_c11dce44987b-themes.zip.tmp: 400 files added (on-disk size: 0 Kb)
0023.494 (0) Zip: backup_2014-03-13-1805_LA_Furnished_Apartments_c11dce44987b-themes.zip.tmp: 500 files added (on-disk size: 0 Kb)
0023.502 (0) Adding batch to zip file (UpdraftPlus_BinZip): over 500 files added on this batch (4.1 Mb, 551 files batched, 501 (501) added so far); re-opening (prior size: 0 Kb)
0025.041 (0) backup_2014-03-13-1805_LA_Furnished_Apartments_c11dce44987b-themes.zip.tmp: size is now: 3.40 Mb
0025.623 (0) Created themes zip (0) - 3614.4 Kb in 2.6 s (1385 Kb/s) (SHA1 checksum: 9d080c416bbf678919f14d9e315dfe145df9a2c5)
0025.647 (0) Exclusion option setting (uploads): backup*,*backups,backwpup*,wp-clone
0025.650 (0) Looking for candidates to back up in: /home1/sholom/public_html/wp-content/uploads
0025.662 (0) finding files: eho.png: adding to list (1)
0025.672 (0) finding files: payment-login.png: adding to list (2)
0025.677 (0) finding files: 2009: adding to list (3)
0025.680 (0) finding files: sag.png: adding to list (4)
0025.681 (0) finding files: google.png: adding to list (5)
0025.690 (0) finding files: 2013: adding to list (6)
0025.692 (0) finding files: 2011: adding to list (7)
0025.696 (0) finding files: wpcf7_captcha: adding to list (8)
0025.698 (0) finding files: wpseo: adding to list (9)
0025.702 (0) finding files: fema.png: adding to list (10)
0025.712 (0) finding files: yelp.png: adding to list (11)
0025.722 (0) finding files: bbb.png: adding to list (12)
0025.733 (0) finding files: 2014: adding to list (13)
0025.735 (0) finding files: 2010: adding to list (14)
0025.742 (0) finding files: 2012: adding to list (15)
0025.752 (0) finding files: 2000: adding to list (16)
0025.762 (0) finding files: aoa.png: adding to list (17)
0025.769 (0) finding files: chpa.png: adding to list (18)
0025.783 (0) finding files: locations.png: adding to list (19)
0025.793 (0) Beginning creation of dump of uploads (split every: 800 Mb)
0026.211 (0) Free disk space in account: 998717.7 Mb (0.1 % used)
0026.782 (0) Total entities for the zip file: 51 directories, 249 files, 5.1 Mb
0026.795 (0) Zip: backup_2014-03-13-1805_LA_Furnished_Apartments_c11dce44987b-uploads.zip.tmp: 100 files added (on-disk size: 0 Kb)
0026.805 (0) Zip: backup_2014-03-13-1805_LA_Furnished_Apartments_c11dce44987b-uploads.zip.tmp: 200 files added (on-disk size: 0 Kb)
0028.358 (0) backup_2014-03-13-1805_LA_Furnished_Apartments_c11dce44987b-uploads.zip.tmp: size is now: 4.80 Mb
0028.404 (0) Created uploads zip (0) - 4916.8 Kb in 2.2 s (2254.8 Kb/s) (SHA1 checksum: 04f7f4e52937523449b79ec411ff86c30c6b3f79)
0028.408 (0) Beginning backup of other directories found in the content directory (index: 0)
0028.409 (0) Exclusion option setting (others): upgrade,cache,updraft,backup*,*backups
0028.411 (0) Looking for candidates to back up in: /home1/sholom/public_html/wp-content
0028.412 (0) finding files: plugins: skipping: this is the plugins directory
0028.414 (0) finding files: object-cache.php: adding to list (1)
0028.427 (0) finding files: index.php: adding to list (2)
0028.428 (0) finding files: cache: skipping: excluded by options
0028.429 (0) finding files: upgrade: skipping: excluded by options
0028.431 (0) finding files: updraft: skipping: this is the updraft directory
0028.432 (0) finding files: advanced-cache.php: adding to list (3)
0028.433 (0) finding files: w3tc: adding to list (4)
0028.434 (0) finding files: uploads: skipping: this is the uploads directory
0028.435 (0) finding files: w3-total-cache-config.php: adding to list (5)
0028.436 (0) finding files: themes: skipping: this is the themes directory
0028.437 (0) finding files: w3tc-config: adding to list (6)
0028.655 (0) Free disk space in account: 998717.7 Mb (0.1 % used)
0029.442 (0) Total entities for the zip file: 658 directories, 293 files, 1.5 Mb
0029.450 (0) Zip: backup_2014-03-13-1805_LA_Furnished_Apartments_c11dce44987b-others.zip.tmp: 100 files added (on-disk size: 0 Kb)
0029.456 (0) Zip: backup_2014-03-13-1805_LA_Furnished_Apartments_c11dce44987b-others.zip.tmp: 200 files added (on-disk size: 0 Kb)
0031.974 (0) backup_2014-03-13-1805_LA_Furnished_Apartments_c11dce44987b-others.zip.tmp: size is now: 0.80 Mb
0031.999 (0) Created others zip (0) - 794.5 Kb in 3.3 s (238.2 Kb/s) (SHA1 checksum: 1b4a4c54a6b057d9b39216c06a81988fdf095800)
0032.022 (0) Saving backup status to database (elements: 8)
0032.034 (0) Beginning creation of database dump
0032.052 (0) Testing: /usr/bin/mysqldump
0032.419 (0) Working binary mysqldump found: /usr/bin/mysqldump
0032.443 (0) Table wp_options: Total expected rows (approximate): 2769
0032.745 (0) Table wp_options: Total rows added: 2768 in 0.29 seconds
0032.747 (0) Table wp_options: finishing file (backup_2014-03-13-1805_LA_Furnished_Apartments_c11dce44987b-db-table-wp_options.table.gz - 176 Kb)
0032.753 (0) Table wp_users: Total expected rows (approximate): 2
0032.756 (0) Table wp_users: Total rows added: 2 in 0.00 seconds
0032.757 (0) Table wp_users: finishing file (backup_2014-03-13-1805_LA_Furnished_Apartments_c11dce44987b-db-table-wp_users.table.gz - 0 Kb)
0032.762 (0) Table wp_usermeta: Total expected rows (approximate): 60
0032.767 (0) Table wp_usermeta: Total rows added: 60 in 0.00 seconds
0032.768 (0) Table wp_usermeta: finishing file (backup_2014-03-13-1805_LA_Furnished_Apartments_c11dce44987b-db-table-wp_usermeta.table.gz - 0 Kb)
0032.775 (0) Table wp_commentmeta: Total expected rows (approximate): 99
0032.784 (0) Table wp_commentmeta: Total rows added: 99 in 0.01 seconds
0032.786 (0) Table wp_commentmeta: finishing file (backup_2014-03-13-1805_LA_Furnished_Apartments_c11dce44987b-db-table-wp_commentmeta.table.gz - 0 Kb)
0032.790 (0) Table wp_comments: Total expected rows (approximate): 22
0032.802 (0) Table wp_comments: Total rows added: 22 in 0.01 seconds
0032.813 (0) Table wp_comments: finishing file (backup_2014-03-13-1805_LA_Furnished_Apartments_c11dce44987b-db-table-wp_comments.table.gz - 0 Kb)
0032.853 (0) Table wp_links: Total expected rows (approximate): 0
0032.864 (0) Table wp_links: Total rows added: 0 in 0.01 seconds
0032.866 (0) Table wp_links: finishing file (backup_2014-03-13-1805_LA_Furnished_Apartments_c11dce44987b-db-table-wp_links.table.gz - 0 Kb)
0032.894 (0) Table wp_postmeta: Total expected rows (approximate): 1316
0032.979 (0) Table wp_postmeta: Total rows added: 1316 in 0.08 seconds
0032.981 (0) Table wp_postmeta: finishing file (backup_2014-03-13-1805_LA_Furnished_Apartments_c11dce44987b-db-table-wp_postmeta.table.gz - 0 Kb)
0032.986 (0) Table wp_posts: Total expected rows (approximate): 1346
0033.398 (0) Table wp_posts: Total rows added: 1346 in 0.41 seconds
0033.400 (0) Table wp_posts: finishing file (backup_2014-03-13-1805_LA_Furnished_Apartments_c11dce44987b-db-table-wp_posts.table.gz - 400 Kb)
0033.405 (0) Table wp_term_relationships: Total expected rows (approximate): 786
0033.422 (0) Table wp_term_relationships: Total rows added: 786 in 0.02 seconds
0033.423 (0) Table wp_term_relationships: finishing file (backup_2014-03-13-1805_LA_Furnished_Apartments_c11dce44987b-db-table-wp_term_relationships.table.gz - 0 Kb)
0033.428 (0) Table wp_term_taxonomy: Total expected rows (approximate): 16
0033.431 (0) Table wp_term_taxonomy: Total rows added: 16 in 0.00 seconds
0033.433 (0) Table wp_term_taxonomy: finishing file (backup_2014-03-13-1805_LA_Furnished_Apartments_c11dce44987b-db-table-wp_term_taxonomy.table.gz - 0 Kb)
0033.438 (0) Table wp_terms: Total expected rows (approximate): 15
0033.440 (0) Table wp_terms: Total rows added: 15 in 0.00 seconds
0033.442 (0) Table wp_terms: finishing file (backup_2014-03-13-1805_LA_Furnished_Apartments_c11dce44987b-db-table-wp_terms.table.gz - 0 Kb)
0033.450 (0) Table wp_contact_form_7: Total expected rows (approximate): 2
0033.455 (0) Table wp_contact_form_7: Total rows added: 2 in 0.00 seconds
0033.457 (0) Table wp_contact_form_7: finishing file (backup_2014-03-13-1805_LA_Furnished_Apartments_c11dce44987b-db-table-wp_contact_form_7.table.gz - 0 Kb)
0033.466 (0) Table wp_mappress_maps: Total expected rows (approximate): 13
0033.470 (0) Table wp_mappress_maps: Total rows added: 13 in 0.00 seconds
0033.471 (0) Table wp_mappress_maps: finishing file (backup_2014-03-13-1805_LA_Furnished_Apartments_c11dce44987b-db-table-wp_mappress_maps.table.gz - 0 Kb)
0033.478 (0) Table wp_mappress_posts: Total expected rows (approximate): 9
0033.481 (0) Table wp_mappress_posts: Total rows added: 9 in 0.00 seconds
0033.482 (0) Table wp_mappress_posts: finishing file (backup_2014-03-13-1805_LA_Furnished_Apartments_c11dce44987b-db-table-wp_mappress_posts.table.gz - 0 Kb)
0033.490 (0) Table wp_ngg_album: Total expected rows (approximate): 0
0033.493 (0) Table wp_ngg_album: Total rows added: 0 in 0.00 seconds
0033.495 (0) Table wp_ngg_album: finishing file (backup_2014-03-13-1805_LA_Furnished_Apartments_c11dce44987b-db-table-wp_ngg_album.table.gz - 0 Kb)
0033.501 (0) Table wp_ngg_gallery: Total expected rows (approximate): 14
0033.505 (0) Table wp_ngg_gallery: Total rows added: 14 in 0.00 seconds
0033.506 (0) Table wp_ngg_gallery: finishing file (backup_2014-03-13-1805_LA_Furnished_Apartments_c11dce44987b-db-table-wp_ngg_gallery.table.gz - 0 Kb)
0033.513 (0) Table wp_ngg_pictures: Total expected rows (approximate): 171
0033.563 (0) Table wp_ngg_pictures: Total rows added: 171 in 0.05 seconds
0033.572 (0) Table wp_ngg_pictures: finishing file (backup_2014-03-13-1805_LA_Furnished_Apartments_c11dce44987b-db-table-wp_ngg_pictures.table.gz - 0 Kb)
0033.612 (0) Table wp_w3tc_cdn_queue: Total expected rows (approximate): 0
0033.652 (0) Table wp_w3tc_cdn_queue: Total rows added: 0 in 0.03 seconds
0033.663 (0) Table wp_w3tc_cdn_queue: finishing file (backup_2014-03-13-1805_LA_Furnished_Apartments_c11dce44987b-db-table-wp_w3tc_cdn_queue.table.gz - 0 Kb)
0033.694 (0) backup_2014-03-13-1805_LA_Furnished_Apartments_c11dce44987b-db-table-wp_options.table.gz (1/18): adding to final database dump
0033.850 (0) backup_2014-03-13-1805_LA_Furnished_Apartments_c11dce44987b-db-table-wp_users.table.gz (2/18): adding to final database dump
0033.863 (0) backup_2014-03-13-1805_LA_Furnished_Apartments_c11dce44987b-db-table-wp_usermeta.table.gz (3/18): adding to final database dump
0033.874 (0) backup_2014-03-13-1805_LA_Furnished_Apartments_c11dce44987b-db-table-wp_commentmeta.table.gz (4/18): adding to final database dump
0033.885 (0) backup_2014-03-13-1805_LA_Furnished_Apartments_c11dce44987b-db-table-wp_comments.table.gz (5/18): adding to final database dump
0033.894 (0) backup_2014-03-13-1805_LA_Furnished_Apartments_c11dce44987b-db-table-wp_links.table.gz (6/18): adding to final database dump
0033.903 (0) backup_2014-03-13-1805_LA_Furnished_Apartments_c11dce44987b-db-table-wp_postmeta.table.gz (7/18): adding to final database dump
0033.927 (0) backup_2014-03-13-1805_LA_Furnished_Apartments_c11dce44987b-db-table-wp_posts.table.gz (8/18): adding to final database dump
0034.343 (0) backup_2014-03-13-1805_LA_Furnished_Apartments_c11dce44987b-db-table-wp_term_relationships.table.gz (9/18): adding to final database dump
0034.357 (0) backup_2014-03-13-1805_LA_Furnished_Apartments_c11dce44987b-db-table-wp_term_taxonomy.table.gz (10/18): adding to final database dump
0034.373 (0) backup_2014-03-13-1805_LA_Furnished_Apartments_c11dce44987b-db-table-wp_terms.table.gz (11/18): adding to final database dump
0034.377 (0) backup_2014-03-13-1805_LA_Furnished_Apartments_c11dce44987b-db-table-wp_contact_form_7.table.gz (12/18): adding to final database dump
0034.379 (0) backup_2014-03-13-1805_LA_Furnished_Apartments_c11dce44987b-db-table-wp_mappress_maps.table.gz (13/18): adding to final database dump
0034.404 (0) backup_2014-03-13-1805_LA_Furnished_Apartments_c11dce44987b-db-table-wp_mappress_posts.table.gz (14/18): adding to final database dump
0034.414 (0) backup_2014-03-13-1805_LA_Furnished_Apartments_c11dce44987b-db-table-wp_ngg_album.table.gz (15/18): adding to final database dump
0034.423 (0) backup_2014-03-13-1805_LA_Furnished_Apartments_c11dce44987b-db-table-wp_ngg_gallery.table.gz (16/18): adding to final database dump
0034.428 (0) backup_2014-03-13-1805_LA_Furnished_Apartments_c11dce44987b-db-table-wp_ngg_pictures.table.gz (17/18): adding to final database dump
0034.447 (0) backup_2014-03-13-1805_LA_Furnished_Apartments_c11dce44987b-db-table-wp_w3tc_cdn_queue.table.gz (18/18): adding to final database dump
0034.453 (0) backup_2014-03-13-1805_LA_Furnished_Apartments_c11dce44987b-db.gz: finished writing out complete database file (640 Kb)
0034.493 (0) Total database tables backed up: 18 (backup_2014-03-13-1805_LA_Furnished_Apartments_c11dce44987b-db.gz: checksum (SHA1): 4fe0a460fa6f786c695139624bc5ada369e72667)
0034.512 (0) Saving backup history
0034.573 (0) backup_2014-03-13-1805_LA_Furnished_Apartments_c11dce44987b-plugins.zip: plugins: This file has not yet been successfully uploaded: will queue
0034.583 (0) backup_2014-03-13-1805_LA_Furnished_Apartments_c11dce44987b-themes.zip: themes: This file has not yet been successfully uploaded: will queue
0034.593 (0) backup_2014-03-13-1805_LA_Furnished_Apartments_c11dce44987b-uploads.zip: uploads: This file has not yet been successfully uploaded: will queue
0034.603 (0) backup_2014-03-13-1805_LA_Furnished_Apartments_c11dce44987b-others.zip: others: This file has not yet been successfully uploaded: will queue
0034.613 (0) backup_2014-03-13-1805_LA_Furnished_Apartments_c11dce44987b-db.gz: db: This file has not yet been successfully uploaded: will queue
0034.653 (0) Requesting upload of the files that have not yet been successfully uploaded (5)
0034.682 (0) Cloud backup selection: none
0034.692 (0) No remote despatch: user chose no remote backup service
0034.713 (0) Retain: beginning examination of existing backup sets; user setting: retain_files=50, retain_db=2
0034.732 (0) Number of backup sets in history: 4
0034.737 (0) Examining backup set with datestamp: 1394759115 (Mar 14 2014 01:05:15)
0034.743 (0) 1394759115: db: this set includes a database (backup_2014-03-13-1805_LA_Furnished_Apartments_c11dce44987b-db.gz); db count is now 1
0034.755 (0) 1394759115: this backup set remains non-empty (1/1); will retain in history
0034.763 (0) Examining backup set with datestamp: 1394756468 (Mar 14 2014 00:21:08)
0034.773 (0) 1394756468: this backup set remains non-empty (1/0); will retain in history
0034.783 (0) Examining backup set with datestamp: 1394756408 (Mar 14 2014 00:20:08)
0034.793 (0) 1394756408: db: this set includes a database (backup_2014-03-13-1720_LA_Furnished_Apartments_b16f09d9f259-db.gz); db count is now 2
0034.813 (0) 1394756408: this backup set remains non-empty (1/1); will retain in history
0034.823 (0) Examining backup set with datestamp: 1394756351 (Mar 14 2014 00:19:11)
0034.833 (0) 1394756351: db: this set includes a database (backup_2014-03-13-1719_LA_Furnished_Apartments_85f27b60591e-db.gz); db count is now 3
0034.839 (0) 1394756351: db: over retain limit (2); will delete this database
0034.842 (0) Delete file: backup_2014-03-13-1719_LA_Furnished_Apartments_85f27b60591e-db.gz, service=none
0034.847 (0) Deleting local copy (backup_2014-03-13-1719_LA_Furnished_Apartments_85f27b60591e-db.gz)
0034.873 (0) 1394756351: this backup set remains non-empty (1/0); will retain in history
0034.883 (0) Retain: saving new backup history (sets now: 4) and finishing retain operation
0034.893 (0) Resume backup (c11dce44987b, 0): finish run
0034.912 (0) Decremented the semaphore (fd) by 1
0034.932 (0) Semaphore (fd) unlocked
0034.942 (0) There were no errors in the uploads, so the 'resume' event (1) is being unscheduled
0034.965 (0) No email will/can be sent - the user has not configured an email address.
0034.967 (0) The backup apparently succeeded and is now complete
