0000.000 (0) Opened log file at time: Fri, 14 Mar 2014 00:21:08 +0000 on http://www.furnapt.com
0000.002 (0) UpdraftPlus WordPress backup plugin (http://updraftplus.com): 1.8.12 WP: 3.8.1 PHP: 5.2.17 (Linux gator3308.hostgator.com 3.2.54 #9 SMP Thu Feb 13 08:17:11 CST 2014 x86_64) MySQL: 5.5.33-31.1 Server: Apache safe_mode: 0 max_execution_time: 900 memory_limit: 256M (used: 37.4M | 37.8M) multisite: N mcrypt: Y ZipArchive::addFile: Y W3TC/ObjectCache: N
0000.194 (0) Free space on disk containing Updraft's temporary directory: 177475 Mb / Free disk space in account: 998741.2 Mb (0.1 % used)
0000.197 (0) Tasks: Backup files: 1 (schedule: daily) Backup DB:  (schedule: manual)
0000.199 (0) Processed schedules. Tasks now: Backup files: 1 Backup DB: 
0000.203 (0) Requesting semaphore lock (f)
0000.206 (0) Set semaphore last lock (f) time to 2014-03-14 00:21:08
0000.207 (0) Semaphore lock (f) complete
0000.213 (0) Backup run: resumption=0, nonce=d21d2620a02c, begun at=1394756468 (0s ago), job type=backup
0000.214 (0) Scheduling a resumption (1) after 300 seconds (1394756768) in case this run gets aborted
0000.225 (0) Checking if we have a zip executable available
0000.230 (0) Testing: /usr/bin/zip
0000.238 (0) Output: zip warning: binziptest/test.zip not found or empty
0000.240 (0) Output: adding: binziptest/subdir1/	(in=0) (out=0) (stored 0%)
0000.241 (0) Output: adding: binziptest/subdir1/subdir2/	(in=0) (out=0) (stored 0%)
0000.242 (0) Output: adding: binziptest/subdir1/subdir2/test.html	(in=127) (out=105) (deflated 17%)
0000.243 (0) Output: total bytes=127, compressed=105 -> 17% savings
0000.252 (0) Output: adding: binziptest/subdir1/subdir2/test2.html	(in=134) (out=109) (deflated 19%)
0000.253 (0) Output: total bytes=261, compressed=214 -> 18% savings
0000.265 (0) Working binary zip found: /usr/bin/zip
0000.268 (0) Zip engine: found/will use a binary zip: /usr/bin/zip
0000.269 (0) Creation of backups of directories: beginning
0000.272 (0) Beginning creation of dump of plugins (split every: 800 Mb)
0000.408 (0) Free disk space in account: 998741.2 Mb (0.1 % used)
0000.471 (0) Total entities for the zip file: 358 directories, 2305 files, 29.5 Mb
0000.476 (0) Zip: backup_2014-03-13-1721_LA_Furnished_Apartments_d21d2620a02c-plugins.zip.tmp: 100 files added (on-disk size: 0 Kb)
0000.481 (0) Zip: backup_2014-03-13-1721_LA_Furnished_Apartments_d21d2620a02c-plugins.zip.tmp: 200 files added (on-disk size: 0 Kb)
0000.485 (0) Zip: backup_2014-03-13-1721_LA_Furnished_Apartments_d21d2620a02c-plugins.zip.tmp: 300 files added (on-disk size: 0 Kb)
0000.490 (0) Zip: backup_2014-03-13-1721_LA_Furnished_Apartments_d21d2620a02c-plugins.zip.tmp: 400 files added (on-disk size: 0 Kb)
0000.493 (0) Zip: backup_2014-03-13-1721_LA_Furnished_Apartments_d21d2620a02c-plugins.zip.tmp: 500 files added (on-disk size: 0 Kb)
0000.495 (0) Adding batch to zip file (UpdraftPlus_BinZip): over 500 files added on this batch (4.4 Mb, 2305 files batched, 501 (501) added so far); re-opening (prior size: 0 Kb)
0000.749 (0) backup_2014-03-13-1721_LA_Furnished_Apartments_d21d2620a02c-plugins.zip.tmp: size is now: 1.30 Mb
0000.755 (0) Zip: backup_2014-03-13-1721_LA_Furnished_Apartments_d21d2620a02c-plugins.zip.tmp: 600 files added (on-disk size: 1371.7 Kb)
0000.759 (0) Zip: backup_2014-03-13-1721_LA_Furnished_Apartments_d21d2620a02c-plugins.zip.tmp: 700 files added (on-disk size: 1371.7 Kb)
0000.762 (0) Zip: backup_2014-03-13-1721_LA_Furnished_Apartments_d21d2620a02c-plugins.zip.tmp: 800 files added (on-disk size: 1371.7 Kb)
0000.766 (0) Zip: backup_2014-03-13-1721_LA_Furnished_Apartments_d21d2620a02c-plugins.zip.tmp: 900 files added (on-disk size: 1371.7 Kb)
0000.770 (0) Zip: backup_2014-03-13-1721_LA_Furnished_Apartments_d21d2620a02c-plugins.zip.tmp: 1000 files added (on-disk size: 1371.7 Kb)
0000.771 (0) Adding batch to zip file (UpdraftPlus_BinZip): over 500 files added on this batch (11.4 Mb, 2305 files batched, 501 (1002) added so far); re-opening (prior size: 1371.7 Kb)
0001.668 (0) backup_2014-03-13-1721_LA_Furnished_Apartments_d21d2620a02c-plugins.zip.tmp: size is now: 6.60 Mb
0001.675 (0) Zip: backup_2014-03-13-1721_LA_Furnished_Apartments_d21d2620a02c-plugins.zip.tmp: 1100 files added (on-disk size: 6790.8 Kb)
0001.680 (0) Zip: backup_2014-03-13-1721_LA_Furnished_Apartments_d21d2620a02c-plugins.zip.tmp: 1200 files added (on-disk size: 6790.8 Kb)
0001.684 (0) Zip: backup_2014-03-13-1721_LA_Furnished_Apartments_d21d2620a02c-plugins.zip.tmp: 1300 files added (on-disk size: 6790.8 Kb)
0001.688 (0) Zip: backup_2014-03-13-1721_LA_Furnished_Apartments_d21d2620a02c-plugins.zip.tmp: 1400 files added (on-disk size: 6790.8 Kb)
0001.692 (0) Zip: backup_2014-03-13-1721_LA_Furnished_Apartments_d21d2620a02c-plugins.zip.tmp: 1500 files added (on-disk size: 6790.8 Kb)
0001.695 (0) Adding batch to zip file (UpdraftPlus_BinZip): over 500 files added on this batch (3.1 Mb, 2305 files batched, 501 (1503) added so far); re-opening (prior size: 6790.8 Kb)
0001.963 (0) backup_2014-03-13-1721_LA_Furnished_Apartments_d21d2620a02c-plugins.zip.tmp: size is now: 8.30 Mb
0001.970 (0) Zip: backup_2014-03-13-1721_LA_Furnished_Apartments_d21d2620a02c-plugins.zip.tmp: 1600 files added (on-disk size: 8532.3 Kb)
0001.974 (0) Zip: backup_2014-03-13-1721_LA_Furnished_Apartments_d21d2620a02c-plugins.zip.tmp: 1700 files added (on-disk size: 8532.3 Kb)
0001.978 (0) Zip: backup_2014-03-13-1721_LA_Furnished_Apartments_d21d2620a02c-plugins.zip.tmp: 1800 files added (on-disk size: 8532.3 Kb)
0001.982 (0) Zip: backup_2014-03-13-1721_LA_Furnished_Apartments_d21d2620a02c-plugins.zip.tmp: 1900 files added (on-disk size: 8532.3 Kb)
0001.988 (0) Zip: backup_2014-03-13-1721_LA_Furnished_Apartments_d21d2620a02c-plugins.zip.tmp: 2000 files added (on-disk size: 8532.3 Kb)
0001.989 (0) Adding batch to zip file (UpdraftPlus_BinZip): over 500 files added on this batch (9.4 Mb, 2305 files batched, 501 (2004) added so far); re-opening (prior size: 8532.3 Kb)
0002.896 (0) backup_2014-03-13-1721_LA_Furnished_Apartments_d21d2620a02c-plugins.zip.tmp: size is now: 12.40 Mb
0002.905 (0) Zip: backup_2014-03-13-1721_LA_Furnished_Apartments_d21d2620a02c-plugins.zip.tmp: 2100 files added (on-disk size: 12655.9 Kb)
0002.910 (0) Zip: backup_2014-03-13-1721_LA_Furnished_Apartments_d21d2620a02c-plugins.zip.tmp: 2200 files added (on-disk size: 12655.9 Kb)
0002.915 (0) Zip: backup_2014-03-13-1721_LA_Furnished_Apartments_d21d2620a02c-plugins.zip.tmp: 2300 files added (on-disk size: 12655.9 Kb)
0003.419 (0) Created plugins zip (0) - 13156.7 Kb in 3 s (4372.8 Kb/s) (SHA1 checksum: 5aa7e75adeff52c7b52fdb9ff00437ba371a6979)
0003.424 (0) Beginning creation of dump of themes (split every: 800 Mb)
0003.612 (0) Free disk space in account: 998741.2 Mb (0.1 % used)
0003.626 (0) Total entities for the zip file: 46 directories, 551 files, 4.4 Mb
0003.630 (0) Zip: backup_2014-03-13-1721_LA_Furnished_Apartments_d21d2620a02c-themes.zip.tmp: 100 files added (on-disk size: 0 Kb)
0003.634 (0) Zip: backup_2014-03-13-1721_LA_Furnished_Apartments_d21d2620a02c-themes.zip.tmp: 200 files added (on-disk size: 0 Kb)
0003.638 (0) Zip: backup_2014-03-13-1721_LA_Furnished_Apartments_d21d2620a02c-themes.zip.tmp: 300 files added (on-disk size: 0 Kb)
0003.641 (0) Zip: backup_2014-03-13-1721_LA_Furnished_Apartments_d21d2620a02c-themes.zip.tmp: 400 files added (on-disk size: 0 Kb)
0003.645 (0) Zip: backup_2014-03-13-1721_LA_Furnished_Apartments_d21d2620a02c-themes.zip.tmp: 500 files added (on-disk size: 0 Kb)
0003.646 (0) Adding batch to zip file (UpdraftPlus_BinZip): over 500 files added on this batch (4.1 Mb, 551 files batched, 501 (501) added so far); re-opening (prior size: 0 Kb)
0003.910 (0) backup_2014-03-13-1721_LA_Furnished_Apartments_d21d2620a02c-themes.zip.tmp: size is now: 3.40 Mb
0004.021 (0) Created themes zip (0) - 3614.4 Kb in 0.4 s (8894.9 Kb/s) (SHA1 checksum: 94289e1075563fb244e62077a3fcceee498a549a)
0004.026 (0) Exclusion option setting (uploads): backup*,*backups,backwpup*,wp-clone
0004.037 (0) Looking for candidates to back up in: /home1/sholom/public_html/wp-content/uploads
0004.047 (0) finding files: eho.png: adding to list (1)
0004.057 (0) finding files: payment-login.png: adding to list (2)
0004.067 (0) finding files: 2009: adding to list (3)
0004.070 (0) finding files: sag.png: adding to list (4)
0004.074 (0) finding files: google.png: adding to list (5)
0004.076 (0) finding files: 2013: adding to list (6)
0004.078 (0) finding files: 2011: adding to list (7)
0004.080 (0) finding files: wpcf7_captcha: adding to list (8)
0004.081 (0) finding files: wpseo: adding to list (9)
0004.083 (0) finding files: fema.png: adding to list (10)
0004.085 (0) finding files: yelp.png: adding to list (11)
0004.086 (0) finding files: bbb.png: adding to list (12)
0004.087 (0) finding files: 2014: adding to list (13)
0004.088 (0) finding files: 2010: adding to list (14)
0004.091 (0) finding files: 2012: adding to list (15)
0004.093 (0) finding files: 2000: adding to list (16)
0004.095 (0) finding files: aoa.png: adding to list (17)
0004.096 (0) finding files: chpa.png: adding to list (18)
0004.098 (0) finding files: locations.png: adding to list (19)
0004.099 (0) Beginning creation of dump of uploads (split every: 800 Mb)
0004.245 (0) Free disk space in account: 998741.2 Mb (0.1 % used)
0004.258 (0) Total entities for the zip file: 51 directories, 401 files, 5.2 Mb
0004.262 (0) Zip: backup_2014-03-13-1721_LA_Furnished_Apartments_d21d2620a02c-uploads.zip.tmp: 100 files added (on-disk size: 0 Kb)
0004.265 (0) Zip: backup_2014-03-13-1721_LA_Furnished_Apartments_d21d2620a02c-uploads.zip.tmp: 200 files added (on-disk size: 0 Kb)
0004.269 (0) Zip: backup_2014-03-13-1721_LA_Furnished_Apartments_d21d2620a02c-uploads.zip.tmp: 300 files added (on-disk size: 0 Kb)
0004.273 (0) Zip: backup_2014-03-13-1721_LA_Furnished_Apartments_d21d2620a02c-uploads.zip.tmp: 400 files added (on-disk size: 0 Kb)
0004.576 (0) backup_2014-03-13-1721_LA_Furnished_Apartments_d21d2620a02c-uploads.zip.tmp: size is now: 4.90 Mb
0004.615 (0) Created uploads zip (0) - 5038.6 Kb in 0.4 s (13690.8 Kb/s) (SHA1 checksum: 5c479538e130d584cd219fe19c59f44d6092b69b)
0004.618 (0) Beginning backup of other directories found in the content directory (index: 0)
0004.619 (0) Exclusion option setting (others): upgrade,cache,updraft,backup*,*backups
0004.621 (0) Looking for candidates to back up in: /home1/sholom/public_html/wp-content
0004.622 (0) finding files: plugins: skipping: this is the plugins directory
0004.623 (0) finding files: object-cache.php: adding to list (1)
0004.625 (0) finding files: index.php: adding to list (2)
0004.627 (0) finding files: cache: skipping: excluded by options
0004.629 (0) finding files: upgrade: skipping: excluded by options
0004.630 (0) finding files: updraft: skipping: this is the updraft directory
0004.631 (0) finding files: advanced-cache.php: adding to list (3)
0004.632 (0) finding files: w3tc: adding to list (4)
0004.633 (0) finding files: uploads: skipping: this is the uploads directory
0004.634 (0) finding files: w3-total-cache-config.php: adding to list (5)
0004.635 (0) finding files: themes: skipping: this is the themes directory
0004.636 (0) finding files: w3tc-config: adding to list (6)
0004.784 (0) Free disk space in account: 998741.2 Mb (0.1 % used)
0004.825 (0) Total entities for the zip file: 658 directories, 293 files, 1.5 Mb
0004.831 (0) Zip: backup_2014-03-13-1721_LA_Furnished_Apartments_d21d2620a02c-others.zip.tmp: 100 files added (on-disk size: 0 Kb)
0004.835 (0) Zip: backup_2014-03-13-1721_LA_Furnished_Apartments_d21d2620a02c-others.zip.tmp: 200 files added (on-disk size: 0 Kb)
0004.975 (0) backup_2014-03-13-1721_LA_Furnished_Apartments_d21d2620a02c-others.zip.tmp: size is now: 0.80 Mb
0004.986 (0) Created others zip (0) - 794.5 Kb in 0.2 s (3971.1 Kb/s) (SHA1 checksum: 1b4a4c54a6b057d9b39216c06a81988fdf095800)
0004.991 (0) Saving backup status to database (elements: 8)
0004.994 (0) No database backup - not part of this run
0004.996 (0) Saving backup history
0004.998 (0) backup_2014-03-13-1721_LA_Furnished_Apartments_d21d2620a02c-plugins.zip: plugins: This file has not yet been successfully uploaded: will queue
0004.999 (0) backup_2014-03-13-1721_LA_Furnished_Apartments_d21d2620a02c-themes.zip: themes: This file has not yet been successfully uploaded: will queue
0005.000 (0) backup_2014-03-13-1721_LA_Furnished_Apartments_d21d2620a02c-uploads.zip: uploads: This file has not yet been successfully uploaded: will queue
0005.001 (0) backup_2014-03-13-1721_LA_Furnished_Apartments_d21d2620a02c-others.zip: others: This file has not yet been successfully uploaded: will queue
0005.005 (0) Requesting upload of the files that have not yet been successfully uploaded (4)
0005.009 (0) Cloud backup selection: none
0005.010 (0) No remote despatch: user chose no remote backup service
0005.013 (0) Retain: beginning examination of existing backup sets; user setting: retain_files=50, retain_db=2
0005.014 (0) Number of backup sets in history: 3
0005.015 (0) Examining backup set with datestamp: 1394756468 (Mar 14 2014 00:21:08)
0005.018 (0) 1394756468: this backup set remains non-empty (1/0); will retain in history
0005.019 (0) Examining backup set with datestamp: 1394756408 (Mar 14 2014 00:20:08)
0005.020 (0) 1394756408: db: this set includes a database (backup_2014-03-13-1720_LA_Furnished_Apartments_b16f09d9f259-db.gz); db count is now 1
0005.022 (0) 1394756408: this backup set remains non-empty (1/1); will retain in history
0005.023 (0) Examining backup set with datestamp: 1394756351 (Mar 14 2014 00:19:11)
0005.024 (0) 1394756351: db: this set includes a database (backup_2014-03-13-1719_LA_Furnished_Apartments_85f27b60591e-db.gz); db count is now 2
0005.027 (0) 1394756351: this backup set remains non-empty (1/1); will retain in history
0005.028 (0) Retain: saving new backup history (sets now: 3) and finishing retain operation
0005.030 (0) Resume backup (d21d2620a02c, 0): finish run
0005.032 (0) Decremented the semaphore (f) by 1
0005.035 (0) Semaphore (f) unlocked
0005.036 (0) There were no errors in the uploads, so the 'resume' event (1) is being unscheduled
0005.040 (0) No email will/can be sent - the user has not configured an email address.
0005.041 (0) The backup apparently succeeded and is now complete
